﻿"Time";"T_in (4T0)";"T_out (4T6)";"Pres (P130)";"Flow (F110)"
"2019-08-30 10:15:00";"124.50";"289.70";"0.80";"-0.12"
"2019-08-30 10:14:58";"124.50";"289.70";"0.80";"-0.12"
"2019-08-30 10:14:56";"124.50";"289.70";"0.80";"-0.12"
"2019-08-30 10:14:54";"124.60";"289.10";"1.09";"-0.12"
"2019-08-30 10:14:52";"124.60";"289.10";"1.09";"-0.12"
"2019-08-30 10:14:50";"124.60";"289.10";"1.09";"-0.12"
"2019-08-30 10:14:48";"125.50";"288.10";"0.83";"-0.12"
"2019-08-30 10:14:46";"125.50";"288.10";"0.83";"-0.12"
"2019-08-30 10:14:44";"127.30";"287.00";"1.22";"-0.12"
"2019-08-30 10:14:42";"127.30";"287.00";"1.22";"-0.12"
"2019-08-30 10:14:40";"127.30";"287.00";"1.22";"-0.12"
"2019-08-30 10:14:38";"126.90";"286.20";"1.15";"-0.12"
"2019-08-30 10:14:36";"126.90";"286.20";"1.15";"-0.12"
"2019-08-30 10:14:34";"129.80";"284.60";"1.15";"-0.12"
"2019-08-30 10:14:32";"129.80";"284.60";"1.37";"-0.12"
"2019-08-30 10:14:30";"129.80";"284.60";"1.37";"-0.12"
"2019-08-30 10:14:28";"131.70";"283.60";"1.45";"-0.12"
"2019-08-30 10:14:26";"131.70";"283.60";"1.45";"-0.12"
"2019-08-30 10:14:24";"132.10";"282.40";"1.45";"-0.12"
"2019-08-30 10:14:22";"132.10";"282.40";"1.46";"-0.12"
"2019-08-30 10:14:20";"132.10";"282.40";"1.46";"-0.12"
"2019-08-30 10:14:18";"133.10";"280.70";"1.57";"-0.12"
"2019-08-30 10:14:16";"133.10";"280.70";"1.57";"-0.12"
"2019-08-30 10:14:14";"135.90";"278.60";"1.57";"-0.12"
"2019-08-30 10:14:12";"135.90";"278.60";"2.03";"-0.12"
"2019-08-30 10:14:10";"135.90";"278.60";"2.03";"-0.12"
"2019-08-30 10:14:08";"136.30";"277.40";"2.09";"-0.12"
"2019-08-30 10:14:06";"136.30";"277.40";"2.09";"-0.12"
"2019-08-30 10:14:04";"139.70";"275.40";"2.09";"-0.12"
"2019-08-30 10:14:02";"139.70";"275.40";"2.29";"-0.12"
"2019-08-30 10:14:00";"139.70";"275.40";"2.29";"-0.12"
"2019-08-30 10:13:58";"139.90";"274.10";"2.26";"-0.12"
"2019-08-30 10:13:56";"139.90";"274.10";"2.26";"-0.12"
"2019-08-30 10:13:54";"144.10";"271.00";"2.26";"-0.12"
"2019-08-30 10:13:52";"144.10";"271.00";"2.76";"-0.12"
"2019-08-30 10:13:50";"144.10";"271.00";"2.76";"-0.12"
"2019-08-30 10:13:48";"145.20";"269.50";"3.40";"-0.12"
"2019-08-30 10:13:46";"145.20";"269.50";"3.40";"-0.12"
"2019-08-30 10:13:44";"148.60";"266.10";"3.40";"-0.12"
"2019-08-30 10:13:42";"148.60";"266.10";"3.53";"-0.12"
"2019-08-30 10:13:40";"148.60";"266.10";"3.53";"-0.12"
"2019-08-30 10:13:38";"152.70";"260.50";"3.66";"-0.12"
"2019-08-30 10:13:36";"152.70";"260.50";"3.66";"-0.12"
"2019-08-30 10:13:34";"157.60";"255.50";"3.66";"-0.12"
"2019-08-30 10:13:32";"157.60";"255.50";"4.97";"-0.12"
"2019-08-30 10:13:30";"157.60";"255.50";"4.97";"-0.12"
"2019-08-30 10:13:28";"161.90";"250.00";"5.58";"-0.12"
"2019-08-30 10:13:26";"161.90";"250.00";"5.58";"-0.12"
"2019-08-30 10:13:24";"168.10";"243.00";"5.58";"-0.12"
"2019-08-30 10:13:22";"168.10";"243.00";"6.29";"-0.12"
"2019-08-30 10:13:20";"168.10";"243.00";"6.29";"-0.12"
"2019-08-30 10:13:18";"172.30";"236.20";"7.17";"-0.12"
"2019-08-30 10:13:16";"172.30";"236.20";"7.17";"-0.12"
"2019-08-30 10:13:14";"182.30";"212.30";"7.17";"-0.12"
"2019-08-30 10:13:12";"182.30";"212.30";"9.35";"-0.12"
"2019-08-30 10:13:10";"182.30";"212.30";"9.35";"-0.12"
"2019-08-30 10:13:08";"178.80";"222.90";"10.31";"-0.10"
"2019-08-30 10:13:06";"178.80";"222.90";"10.31";"-0.10"
"2019-08-30 10:13:04";"187.50";"216.40";"10.31";"-0.10"
"2019-08-30 10:13:02";"187.50";"216.40";"11.36";"-0.10"
"2019-08-30 10:13:00";"187.50";"216.40";"11.36";"-0.10"
"2019-08-30 10:12:58";"191.00";"197.00";"14.02";"-0.10"
"2019-08-30 10:12:56";"191.00";"197.00";"14.02";"-0.10"
"2019-08-30 10:12:54";"177.00";"209.10";"14.02";"-0.10"
"2019-08-30 10:12:52";"177.00";"209.10";"14.91";"-0.10"
"2019-08-30 10:12:50";"177.00";"209.10";"14.91";"-0.10"
"2019-08-30 10:12:48";"177.20";"201.90";"15.91";"60.94"
"2019-08-30 10:12:46";"177.20";"201.90";"15.91";"60.94"
"2019-08-30 10:12:44";"177.40";"202.00";"15.91";"60.94"
"2019-08-30 10:12:42";"177.40";"202.00";"15.94";"202.55"
"2019-08-30 10:12:40";"177.40";"202.00";"15.94";"202.55"
"2019-08-30 10:12:38";"177.40";"201.90";"15.99";"204.62"
"2019-08-30 10:12:36";"177.40";"201.90";"15.99";"204.62"
"2019-08-30 10:12:34";"177.60";"201.80";"15.99";"204.62"
"2019-08-30 10:12:32";"177.60";"201.80";"15.94";"199.46"
"2019-08-30 10:12:30";"177.60";"201.80";"15.94";"199.46"
"2019-08-30 10:12:28";"177.50";"202.00";"15.97";"188.98"
"2019-08-30 10:12:26";"177.50";"202.00";"15.97";"188.98"
"2019-08-30 10:12:24";"177.50";"202.10";"15.97";"188.98"
"2019-08-30 10:12:22";"177.40";"202.10";"16.02";"200.14"
"2019-08-30 10:12:20";"177.40";"202.10";"16.02";"200.14"
"2019-08-30 10:12:18";"177.50";"202.30";"16.13";"200.39"
"2019-08-30 10:12:16";"177.50";"202.30";"16.13";"200.39"
"2019-08-30 10:12:14";"177.50";"202.60";"16.13";"200.39"
"2019-08-30 10:12:12";"177.60";"202.60";"16.23";"200.39"
"2019-08-30 10:12:10";"177.60";"202.60";"16.23";"200.39"
"2019-08-30 10:12:08";"177.50";"202.70";"16.31";"200.81"
"2019-08-30 10:12:06";"177.50";"202.70";"16.31";"200.81"
"2019-08-30 10:12:04";"177.50";"202.70";"16.31";"200.81"
"2019-08-30 10:12:02";"177.50";"202.90";"16.33";"199.90"
"2019-08-30 10:12:00";"177.50";"202.90";"16.33";"199.90"
"2019-08-30 10:11:58";"177.60";"202.90";"16.36";"199.90"
"2019-08-30 10:11:56";"177.60";"202.90";"16.36";"199.90"
"2019-08-30 10:11:54";"177.60";"202.90";"16.36";"199.90"
"2019-08-30 10:11:52";"177.70";"203.00";"16.39";"199.64"
"2019-08-30 10:11:50";"177.70";"203.00";"16.39";"199.64"
"2019-08-30 10:11:48";"177.50";"203.30";"16.49";"199.90"
"2019-08-30 10:11:46";"177.50";"203.30";"16.49";"199.90"
"2019-08-30 10:11:44";"177.50";"203.30";"16.49";"199.90"
"2019-08-30 10:11:42";"177.70";"203.30";"16.49";"200.14"
"2019-08-30 10:11:40";"177.70";"203.30";"16.49";"200.14"
"2019-08-30 10:11:38";"177.70";"203.40";"16.49";"199.65"
"2019-08-30 10:11:36";"177.70";"203.40";"16.49";"199.65"
"2019-08-30 10:11:34";"177.70";"203.40";"16.49";"199.65"
"2019-08-30 10:11:32";"177.60";"203.60";"16.56";"200.14"
"2019-08-30 10:11:30";"177.60";"203.60";"16.56";"200.14"
"2019-08-30 10:11:28";"177.60";"203.90";"16.64";"200.56"
"2019-08-30 10:11:26";"177.60";"203.90";"16.64";"200.56"
"2019-08-30 10:11:24";"177.60";"203.90";"16.64";"200.56"
"2019-08-30 10:11:22";"177.70";"203.80";"16.62";"200.14"
"2019-08-30 10:11:20";"177.70";"203.80";"16.62";"200.14"
"2019-08-30 10:11:18";"177.60";"204.10";"16.80";"199.90"
"2019-08-30 10:11:16";"177.60";"204.10";"16.80";"199.90"
"2019-08-30 10:11:14";"177.60";"204.10";"16.80";"199.90"
"2019-08-30 10:11:12";"177.50";"204.20";"16.84";"199.39"
"2019-08-30 10:11:10";"177.50";"204.20";"16.84";"199.39"
"2019-08-30 10:11:08";"177.60";"204.40";"16.97";"199.90"
"2019-08-30 10:11:06";"177.60";"204.40";"16.97";"199.90"
"2019-08-30 10:11:04";"177.60";"204.40";"16.97";"199.90"
"2019-08-30 10:11:02";"177.60";"204.70";"17.02";"200.14"
"2019-08-30 10:11:00";"177.60";"204.70";"17.02";"200.14"
"2019-08-30 10:10:58";"177.60";"204.70";"17.04";"200.81"
"2019-08-30 10:10:56";"177.60";"204.70";"17.04";"200.81"
"2019-08-30 10:10:54";"177.60";"204.70";"17.04";"200.81"
"2019-08-30 10:10:52";"177.60";"204.70";"17.06";"200.39"
"2019-08-30 10:10:50";"177.60";"204.70";"17.06";"200.39"
"2019-08-30 10:10:48";"177.60";"205.00";"17.14";"200.14"
"2019-08-30 10:10:46";"177.60";"205.00";"17.14";"200.14"
"2019-08-30 10:10:44";"177.60";"205.00";"17.14";"200.14"
"2019-08-30 10:10:42";"177.70";"205.10";"17.15";"200.14"
"2019-08-30 10:10:40";"177.70";"205.10";"17.15";"200.14"
"2019-08-30 10:10:38";"177.60";"205.40";"17.18";"199.90"
"2019-08-30 10:10:36";"177.60";"205.40";"17.18";"199.90"
"2019-08-30 10:10:34";"177.60";"205.40";"17.18";"199.90"
"2019-08-30 10:10:32";"177.70";"205.40";"17.20";"199.90"
"2019-08-30 10:10:30";"177.70";"205.40";"17.20";"199.90"
"2019-08-30 10:10:28";"177.60";"205.60";"17.32";"199.90"
"2019-08-30 10:10:26";"177.60";"205.60";"17.32";"199.90"
"2019-08-30 10:10:24";"177.60";"205.60";"17.32";"199.90"
"2019-08-30 10:10:22";"177.60";"205.70";"17.30";"199.90"
"2019-08-30 10:10:20";"177.60";"205.70";"17.30";"199.90"
"2019-08-30 10:10:18";"177.60";"205.90";"17.43";"199.90"
"2019-08-30 10:10:16";"177.60";"205.90";"17.43";"199.90"
"2019-08-30 10:10:14";"177.60";"205.90";"17.43";"199.90"
"2019-08-30 10:10:12";"177.60";"205.90";"17.45";"199.90"
"2019-08-30 10:10:10";"177.60";"205.90";"17.45";"199.90"
"2019-08-30 10:10:08";"177.50";"206.20";"17.57";"199.41"
"2019-08-30 10:10:06";"177.50";"206.20";"17.57";"199.41"
"2019-08-30 10:10:04";"177.50";"206.20";"17.57";"199.41"
"2019-08-30 10:10:02";"177.50";"206.40";"17.61";"199.90"
"2019-08-30 10:10:00";"177.50";"206.40";"17.61";"199.90"
"2019-08-30 10:09:58";"177.50";"206.50";"17.65";"200.39"
"2019-08-30 10:09:56";"177.50";"206.50";"17.65";"200.39"
"2019-08-30 10:09:54";"177.50";"206.50";"17.65";"200.39"
"2019-08-30 10:09:52";"177.60";"206.70";"17.69";"199.90"
"2019-08-30 10:09:50";"177.60";"206.70";"17.69";"199.90"
"2019-08-30 10:09:48";"177.60";"206.80";"17.74";"200.23"
"2019-08-30 10:09:46";"177.60";"206.80";"17.74";"200.23"
"2019-08-30 10:09:44";"177.60";"206.80";"17.74";"200.23"
"2019-08-30 10:09:42";"177.60";"207.00";"17.81";"200.39"
"2019-08-30 10:09:40";"177.60";"207.00";"17.81";"200.39"
"2019-08-30 10:09:38";"177.40";"207.10";"17.83";"199.64"
"2019-08-30 10:09:36";"177.40";"207.10";"17.83";"199.64"
"2019-08-30 10:09:34";"177.40";"207.10";"17.83";"199.64"
"2019-08-30 10:09:32";"177.50";"207.30";"17.89";"199.90"
"2019-08-30 10:09:30";"177.50";"207.30";"17.89";"199.90"
"2019-08-30 10:09:28";"177.40";"207.50";"17.98";"199.65"
"2019-08-30 10:09:26";"177.40";"207.50";"17.98";"199.65"
"2019-08-30 10:09:24";"177.40";"207.50";"17.98";"199.65"
"2019-08-30 10:09:22";"177.30";"207.60";"18.01";"200.14"
"2019-08-30 10:09:20";"177.30";"207.60";"18.01";"200.14"
"2019-08-30 10:09:18";"177.40";"207.60";"18.05";"200.14"
"2019-08-30 10:09:16";"177.40";"207.60";"18.05";"200.14"
"2019-08-30 10:09:14";"177.40";"207.60";"18.05";"200.14"
"2019-08-30 10:09:12";"177.30";"207.90";"18.25";"200.14"
"2019-08-30 10:09:10";"177.30";"207.90";"18.25";"200.14"
"2019-08-30 10:09:08";"177.30";"208.00";"18.26";"200.14"
"2019-08-30 10:09:06";"177.30";"208.00";"18.26";"200.14"
"2019-08-30 10:09:04";"177.30";"208.00";"18.26";"200.14"
"2019-08-30 10:09:02";"177.20";"208.10";"18.34";"199.88"
"2019-08-30 10:09:00";"177.20";"208.10";"18.34";"199.88"
"2019-08-30 10:08:58";"177.20";"208.20";"18.36";"199.90"
"2019-08-30 10:08:56";"177.20";"208.20";"18.36";"199.90"
"2019-08-30 10:08:54";"177.20";"208.20";"18.36";"199.90"
"2019-08-30 10:08:52";"177.20";"208.50";"18.44";"199.90"
"2019-08-30 10:08:50";"177.20";"208.50";"18.44";"199.90"
"2019-08-30 10:08:48";"177.00";"208.60";"18.47";"200.39"
"2019-08-30 10:08:46";"177.00";"208.60";"18.47";"200.39"
"2019-08-30 10:08:44";"177.00";"208.60";"18.47";"200.39"
"2019-08-30 10:08:42";"177.00";"208.80";"18.53";"199.65"
"2019-08-30 10:08:40";"177.00";"208.80";"18.53";"199.65"
"2019-08-30 10:08:38";"176.90";"208.90";"18.57";"200.14"
"2019-08-30 10:08:36";"176.90";"208.90";"18.57";"200.14"
"2019-08-30 10:08:34";"176.90";"208.90";"18.57";"200.14"
"2019-08-30 10:08:32";"176.90";"209.00";"18.56";"199.90"
"2019-08-30 10:08:30";"176.90";"209.00";"18.56";"199.90"
"2019-08-30 10:08:28";"176.90";"209.20";"18.60";"199.65"
"2019-08-30 10:08:26";"176.90";"209.20";"18.60";"199.65"
"2019-08-30 10:08:24";"176.90";"209.20";"18.60";"199.65"
"2019-08-30 10:08:22";"176.70";"209.30";"18.70";"200.39"
"2019-08-30 10:08:20";"176.70";"209.30";"18.70";"200.39"
"2019-08-30 10:08:18";"176.60";"209.50";"18.74";"199.65"
"2019-08-30 10:08:16";"176.60";"209.50";"18.74";"199.65"
"2019-08-30 10:08:14";"176.60";"209.50";"18.74";"199.65"
"2019-08-30 10:08:12";"176.60";"209.70";"18.80";"199.65"
"2019-08-30 10:08:10";"176.60";"209.70";"18.80";"199.65"
"2019-08-30 10:08:08";"176.50";"209.90";"18.85";"200.14"
"2019-08-30 10:08:06";"176.50";"209.90";"18.85";"200.14"
"2019-08-30 10:08:04";"176.50";"209.90";"18.85";"200.14"
"2019-08-30 10:08:02";"176.50";"210.00";"18.89";"200.56"
"2019-08-30 10:08:00";"176.50";"210.00";"18.89";"200.56"
"2019-08-30 10:07:58";"176.60";"210.10";"18.89";"199.65"
"2019-08-30 10:07:56";"176.60";"210.10";"18.89";"199.65"
"2019-08-30 10:07:54";"176.60";"210.10";"18.89";"199.65"
"2019-08-30 10:07:52";"176.50";"210.20";"18.97";"200.39"
"2019-08-30 10:07:50";"176.50";"210.20";"18.97";"200.39"
"2019-08-30 10:07:48";"176.50";"210.40";"19.02";"199.90"
"2019-08-30 10:07:46";"176.50";"210.40";"19.02";"199.90"
"2019-08-30 10:07:44";"176.50";"210.40";"19.02";"199.90"
"2019-08-30 10:07:42";"176.20";"210.60";"19.09";"199.41"
"2019-08-30 10:07:40";"176.20";"210.60";"19.09";"199.41"
"2019-08-30 10:07:38";"176.20";"210.70";"19.12";"200.39"
"2019-08-30 10:07:36";"176.20";"210.70";"19.12";"200.39"
"2019-08-30 10:07:34";"176.20";"210.70";"19.12";"200.39"
"2019-08-30 10:07:32";"176.10";"210.90";"19.16";"199.65"
"2019-08-30 10:07:30";"176.10";"210.90";"19.16";"199.65"
"2019-08-30 10:07:28";"176.10";"210.90";"19.34";"199.90"
"2019-08-30 10:07:26";"176.10";"210.90";"19.34";"199.90"
"2019-08-30 10:07:24";"176.10";"210.90";"19.34";"199.90"
"2019-08-30 10:07:22";"176.00";"211.10";"19.41";"200.39"
"2019-08-30 10:07:20";"176.00";"211.10";"19.41";"200.39"
"2019-08-30 10:07:18";"176.10";"211.30";"19.51";"200.14"
"2019-08-30 10:07:16";"176.10";"211.30";"19.51";"200.14"
"2019-08-30 10:07:14";"176.10";"211.30";"19.51";"200.14"
"2019-08-30 10:07:12";"175.90";"211.40";"19.53";"200.39"
"2019-08-30 10:07:10";"175.90";"211.40";"19.53";"200.39"
"2019-08-30 10:07:08";"175.90";"211.70";"19.62";"199.90"
"2019-08-30 10:07:06";"175.90";"211.70";"19.62";"199.90"
"2019-08-30 10:07:04";"175.90";"211.70";"19.62";"199.90"
"2019-08-30 10:07:02";"175.80";"211.70";"19.62";"200.14"
"2019-08-30 10:07:00";"175.80";"211.70";"19.62";"200.14"
"2019-08-30 10:06:58";"175.60";"211.80";"19.69";"199.65"
"2019-08-30 10:06:56";"175.60";"211.80";"19.69";"199.65"
"2019-08-30 10:06:54";"175.60";"211.80";"19.69";"199.65"
"2019-08-30 10:06:52";"175.60";"212.10";"19.72";"200.55"
"2019-08-30 10:06:50";"175.60";"212.10";"19.72";"200.55"
"2019-08-30 10:06:48";"175.40";"212.30";"19.79";"200.81"
"2019-08-30 10:06:46";"175.40";"212.30";"19.79";"200.81"
"2019-08-30 10:06:44";"175.40";"212.30";"19.79";"200.81"
"2019-08-30 10:06:42";"175.40";"212.40";"19.86";"200.14"
"2019-08-30 10:06:40";"175.40";"212.40";"19.86";"200.14"
"2019-08-30 10:06:38";"175.40";"212.60";"19.97";"199.90"
"2019-08-30 10:06:36";"175.40";"212.60";"19.97";"199.90"
"2019-08-30 10:06:34";"175.40";"212.60";"19.97";"199.90"
"2019-08-30 10:06:32";"175.20";"212.70";"20.03";"200.64"
"2019-08-30 10:06:30";"175.20";"212.70";"20.03";"200.64"
"2019-08-30 10:06:28";"175.10";"212.90";"20.11";"199.65"
"2019-08-30 10:06:26";"175.10";"212.90";"20.11";"199.65"
"2019-08-30 10:06:24";"175.10";"212.90";"20.11";"199.65"
"2019-08-30 10:06:22";"175.10";"213.10";"20.16";"200.14"
"2019-08-30 10:06:20";"175.10";"213.10";"20.16";"200.14"
"2019-08-30 10:06:18";"175.00";"213.10";"20.21";"199.65"
"2019-08-30 10:06:16";"175.00";"213.10";"20.21";"199.65"
"2019-08-30 10:06:14";"175.00";"213.10";"20.21";"199.65"
"2019-08-30 10:06:12";"174.90";"213.30";"20.27";"200.56"
"2019-08-30 10:06:10";"174.90";"213.30";"20.27";"200.56"
"2019-08-30 10:06:08";"174.90";"213.50";"20.33";"199.41"
"2019-08-30 10:06:06";"174.90";"213.50";"20.33";"199.41"
"2019-08-30 10:06:04";"174.90";"213.50";"20.33";"199.41"
"2019-08-30 10:06:02";"174.70";"213.50";"20.32";"199.90"
"2019-08-30 10:06:00";"174.70";"213.50";"20.32";"199.90"
"2019-08-30 10:05:58";"174.60";"213.70";"20.37";"200.39"
"2019-08-30 10:05:56";"174.60";"213.70";"20.37";"200.39"
"2019-08-30 10:05:54";"174.60";"213.70";"20.37";"200.39"
"2019-08-30 10:05:52";"174.50";"213.80";"20.50";"200.14"
"2019-08-30 10:05:50";"174.50";"213.80";"20.50";"200.14"
"2019-08-30 10:05:48";"174.40";"214.00";"20.63";"199.90"
"2019-08-30 10:05:46";"174.40";"214.00";"20.63";"199.90"
"2019-08-30 10:05:44";"174.40";"214.00";"20.63";"199.90"
"2019-08-30 10:05:42";"174.40";"214.10";"20.65";"199.90"
"2019-08-30 10:05:40";"174.40";"214.10";"20.65";"199.90"
"2019-08-30 10:05:38";"174.20";"214.30";"20.72";"200.14"
"2019-08-30 10:05:36";"174.20";"214.30";"20.72";"200.14"
"2019-08-30 10:05:34";"174.20";"214.30";"20.72";"200.14"
"2019-08-30 10:05:32";"174.10";"214.50";"20.82";"200.39"
"2019-08-30 10:05:30";"174.10";"214.50";"20.82";"200.39"
"2019-08-30 10:05:28";"174.10";"214.60";"20.80";"199.41"
"2019-08-30 10:05:26";"174.10";"214.60";"20.80";"199.41"
"2019-08-30 10:05:24";"174.10";"214.60";"20.80";"199.41"
"2019-08-30 10:05:22";"174.10";"214.70";"20.88";"200.39"
"2019-08-30 10:05:20";"174.10";"214.70";"20.88";"200.39"
"2019-08-30 10:05:18";"173.80";"214.90";"20.92";"200.39"
"2019-08-30 10:05:16";"173.80";"214.90";"20.92";"200.39"
"2019-08-30 10:05:14";"173.80";"214.90";"20.92";"200.39"
"2019-08-30 10:05:12";"173.70";"215.00";"20.95";"199.90"
"2019-08-30 10:05:10";"173.70";"215.00";"20.95";"199.90"
"2019-08-30 10:05:08";"173.60";"215.20";"21.05";"200.39"
"2019-08-30 10:05:06";"173.60";"215.20";"21.05";"200.39"
"2019-08-30 10:05:04";"173.60";"215.20";"21.05";"200.39"
"2019-08-30 10:05:02";"173.60";"215.30";"21.20";"200.14"
"2019-08-30 10:05:00";"173.60";"215.30";"21.20";"200.14"
"2019-08-30 10:04:58";"173.50";"215.50";"21.34";"199.90"
"2019-08-30 10:04:56";"173.50";"215.50";"21.34";"199.90"
"2019-08-30 10:04:54";"173.50";"215.50";"21.34";"199.90"
"2019-08-30 10:04:52";"173.40";"215.60";"21.34";"199.90"
"2019-08-30 10:04:50";"173.40";"215.60";"21.34";"199.90"
"2019-08-30 10:04:48";"173.20";"215.70";"21.36";"199.41"
"2019-08-30 10:04:46";"173.20";"215.70";"21.36";"199.41"
"2019-08-30 10:04:44";"173.20";"215.70";"21.36";"199.41"
"2019-08-30 10:04:42";"173.20";"215.90";"21.42";"200.39"
"2019-08-30 10:04:40";"173.20";"215.90";"21.42";"200.39"
"2019-08-30 10:04:38";"173.10";"216.10";"21.46";"200.39"
"2019-08-30 10:04:36";"173.10";"216.10";"21.46";"200.39"
"2019-08-30 10:04:34";"173.10";"216.10";"21.46";"200.39"
"2019-08-30 10:04:32";"172.90";"216.20";"21.52";"199.90"
"2019-08-30 10:04:30";"172.90";"216.20";"21.52";"199.90"
"2019-08-30 10:04:28";"172.90";"216.50";"21.61";"200.39"
"2019-08-30 10:04:26";"172.90";"216.50";"21.61";"200.39"
"2019-08-30 10:04:24";"172.90";"216.50";"21.61";"200.39"
"2019-08-30 10:04:22";"172.80";"216.50";"21.69";"199.65"
"2019-08-30 10:04:20";"172.80";"216.50";"21.69";"199.65"
"2019-08-30 10:04:18";"172.60";"216.70";"21.71";"200.39"
"2019-08-30 10:04:16";"172.60";"216.70";"21.71";"200.39"
"2019-08-30 10:04:14";"172.60";"216.70";"21.71";"200.39"
"2019-08-30 10:04:12";"172.50";"216.90";"21.95";"199.90"
"2019-08-30 10:04:10";"172.50";"216.90";"21.95";"199.90"
"2019-08-30 10:04:08";"172.50";"217.00";"21.95";"199.41"
"2019-08-30 10:04:06";"172.50";"217.00";"21.97";"199.41"
"2019-08-30 10:04:04";"172.50";"217.00";"21.97";"199.41"
"2019-08-30 10:04:02";"172.30";"217.20";"22.04";"200.14"
"2019-08-30 10:04:00";"172.30";"217.20";"22.04";"200.14"
"2019-08-30 10:03:58";"172.20";"217.30";"22.04";"200.39"
"2019-08-30 10:03:56";"172.20";"217.30";"22.07";"200.39"
"2019-08-30 10:03:54";"172.20";"217.30";"22.07";"200.39"
"2019-08-30 10:03:52";"172.10";"217.40";"22.11";"199.65"
"2019-08-30 10:03:50";"172.10";"217.40";"22.11";"199.65"
"2019-08-30 10:03:48";"172.00";"217.70";"22.11";"199.65"
"2019-08-30 10:03:46";"172.00";"217.70";"22.17";"199.65"
"2019-08-30 10:03:44";"172.00";"217.70";"22.17";"199.65"
"2019-08-30 10:03:42";"171.90";"217.70";"22.21";"200.14"
"2019-08-30 10:03:40";"171.90";"217.70";"22.21";"200.14"
"2019-08-30 10:03:38";"171.80";"217.90";"22.21";"200.81"
"2019-08-30 10:03:36";"171.80";"217.90";"22.27";"200.81"
"2019-08-30 10:03:34";"171.80";"217.90";"22.27";"200.81"
"2019-08-30 10:03:32";"171.70";"218.10";"22.36";"200.16"
"2019-08-30 10:03:30";"171.70";"218.10";"22.36";"200.16"
"2019-08-30 10:03:28";"171.70";"218.20";"22.36";"199.41"
"2019-08-30 10:03:26";"171.70";"218.20";"22.37";"199.41"
"2019-08-30 10:03:24";"171.70";"218.20";"22.37";"199.41"
"2019-08-30 10:03:22";"171.60";"218.30";"22.45";"200.39"
"2019-08-30 10:03:20";"171.60";"218.30";"22.45";"200.39"
"2019-08-30 10:03:18";"171.40";"218.50";"22.45";"199.65"
"2019-08-30 10:03:16";"171.40";"218.50";"22.53";"199.65"
"2019-08-30 10:03:14";"171.40";"218.50";"22.53";"199.65"
"2019-08-30 10:03:12";"171.30";"218.70";"22.59";"199.65"
"2019-08-30 10:03:10";"171.30";"218.70";"22.59";"199.65"
"2019-08-30 10:03:08";"171.20";"218.80";"22.59";"199.65"
"2019-08-30 10:03:06";"171.20";"218.80";"22.64";"199.65"
"2019-08-30 10:03:04";"171.20";"218.80";"22.64";"199.65"
"2019-08-30 10:03:02";"171.20";"219.00";"22.69";"199.91"
"2019-08-30 10:03:00";"171.20";"219.00";"22.69";"199.91"
"2019-08-30 10:02:58";"171.00";"219.10";"22.69";"199.65"
"2019-08-30 10:02:56";"171.00";"219.10";"22.70";"199.65"
"2019-08-30 10:02:54";"171.00";"219.10";"22.70";"199.65"
"2019-08-30 10:02:52";"170.90";"219.30";"22.83";"200.14"
"2019-08-30 10:02:50";"170.90";"219.30";"22.83";"200.14"
"2019-08-30 10:02:48";"170.80";"219.40";"22.83";"200.39"
"2019-08-30 10:02:46";"170.80";"219.40";"22.88";"200.39"
"2019-08-30 10:02:44";"170.80";"219.40";"22.88";"200.39"
"2019-08-30 10:02:42";"170.70";"219.60";"23.05";"200.14"
"2019-08-30 10:02:40";"170.70";"219.60";"23.05";"200.14"
"2019-08-30 10:02:38";"170.60";"219.70";"23.05";"200.39"
"2019-08-30 10:02:36";"170.60";"219.70";"23.12";"200.39"
"2019-08-30 10:02:34";"170.60";"219.70";"23.12";"200.39"
"2019-08-30 10:02:32";"170.40";"219.80";"23.18";"200.39"
"2019-08-30 10:02:30";"170.40";"219.80";"23.18";"200.39"
"2019-08-30 10:02:28";"170.40";"220.00";"23.18";"199.41"
"2019-08-30 10:02:26";"170.40";"220.00";"23.24";"199.41"
"2019-08-30 10:02:24";"170.40";"220.00";"23.24";"199.41"
"2019-08-30 10:02:22";"170.20";"220.20";"23.31";"199.65"
"2019-08-30 10:02:20";"170.20";"220.20";"23.31";"199.65"
"2019-08-30 10:02:18";"170.10";"220.30";"23.31";"199.90"
"2019-08-30 10:02:16";"170.10";"220.30";"23.36";"199.90"
"2019-08-30 10:02:14";"170.10";"220.30";"23.36";"199.90"
"2019-08-30 10:02:12";"170.20";"220.50";"23.45";"200.14"
"2019-08-30 10:02:10";"170.20";"220.50";"23.45";"200.14"
"2019-08-30 10:02:08";"169.90";"220.70";"23.45";"200.14"
"2019-08-30 10:02:06";"169.90";"220.70";"23.46";"200.14"
"2019-08-30 10:02:04";"169.90";"220.70";"23.46";"200.14"
"2019-08-30 10:02:02";"170.00";"220.70";"23.51";"200.14"
"2019-08-30 10:02:00";"170.00";"220.70";"23.51";"200.14"
"2019-08-30 10:01:58";"169.70";"221.00";"23.51";"200.39"
"2019-08-30 10:01:56";"169.70";"221.00";"23.72";"200.39"
"2019-08-30 10:01:54";"169.70";"221.00";"23.72";"200.39"
"2019-08-30 10:01:52";"169.60";"221.30";"23.77";"200.39"
"2019-08-30 10:01:50";"169.60";"221.30";"23.77";"200.39"
"2019-08-30 10:01:48";"169.60";"221.30";"23.77";"200.39"
"2019-08-30 10:01:46";"169.50";"221.30";"23.83";"199.90"
"2019-08-30 10:01:44";"169.50";"221.30";"23.83";"199.90"
"2019-08-30 10:01:42";"169.50";"221.50";"23.89";"199.65"
"2019-08-30 10:01:40";"169.50";"221.50";"23.89";"199.65"
"2019-08-30 10:01:38";"169.50";"222.30";"23.89";"199.65"
"2019-08-30 10:01:36";"169.50";"222.30";"23.86";"199.90"
"2019-08-30 10:01:34";"169.50";"222.30";"23.86";"199.90"
"2019-08-30 10:01:32";"169.30";"221.70";"23.98";"200.14"
"2019-08-30 10:01:30";"169.30";"221.70";"23.98";"200.14"
"2019-08-30 10:01:28";"169.20";"221.90";"23.98";"200.14"
"2019-08-30 10:01:26";"169.20";"221.90";"24.03";"200.64"
"2019-08-30 10:01:24";"169.20";"221.90";"24.03";"200.64"
"2019-08-30 10:01:22";"169.10";"224.60";"23.95";"199.90"
"2019-08-30 10:01:20";"169.10";"224.60";"23.95";"199.90"
"2019-08-30 10:01:18";"169.10";"222.80";"23.95";"199.90"
"2019-08-30 10:01:16";"169.10";"222.80";"24.02";"200.14"
"2019-08-30 10:01:14";"169.10";"222.80";"24.02";"200.14"
"2019-08-30 10:01:12";"168.90";"226.40";"23.98";"200.14"
"2019-08-30 10:01:10";"168.90";"226.40";"23.98";"200.14"
"2019-08-30 10:01:08";"168.90";"225.10";"23.98";"200.14"
"2019-08-30 10:01:06";"168.90";"225.10";"24.10";"200.39"
"2019-08-30 10:01:04";"168.90";"225.10";"24.10";"200.39"
"2019-08-30 10:01:02";"168.70";"226.70";"24.08";"199.65"
"2019-08-30 10:01:00";"168.70";"226.70";"24.08";"199.65"
"2019-08-30 10:00:58";"168.70";"226.40";"24.08";"199.65"
"2019-08-30 10:00:56";"168.70";"226.40";"24.09";"200.14"
"2019-08-30 10:00:54";"168.70";"226.40";"24.09";"200.14"
"2019-08-30 10:00:52";"168.60";"228.30";"24.13";"199.65"
"2019-08-30 10:00:50";"168.60";"228.30";"24.13";"199.65"
"2019-08-30 10:00:48";"168.60";"228.30";"24.13";"199.65"
"2019-08-30 10:00:46";"168.50";"227.60";"24.26";"200.81"
"2019-08-30 10:00:44";"168.50";"227.60";"24.26";"200.81"
"2019-08-30 10:00:42";"168.30";"229.10";"24.19";"199.90"
"2019-08-30 10:00:40";"168.30";"229.10";"24.19";"199.90"
"2019-08-30 10:00:38";"168.30";"229.10";"24.19";"199.90"
"2019-08-30 10:00:36";"168.20";"226.90";"24.26";"199.65"
"2019-08-30 10:00:34";"168.20";"226.90";"24.26";"199.65"
"2019-08-30 10:00:32";"168.00";"229.60";"24.31";"199.65"
"2019-08-30 10:00:30";"168.00";"229.60";"24.31";"199.65"
"2019-08-30 10:00:28";"168.00";"229.60";"24.31";"199.65"
"2019-08-30 10:00:26";"167.90";"231.10";"24.30";"200.75"
"2019-08-30 10:00:24";"167.90";"231.10";"24.30";"200.75"
"2019-08-30 10:00:22";"167.80";"231.60";"24.41";"199.49"
"2019-08-30 10:00:20";"167.80";"231.60";"24.41";"199.49"
"2019-08-30 10:00:18";"167.80";"231.60";"24.41";"199.49"
"2019-08-30 10:00:16";"167.60";"233.60";"24.32";"199.90"
"2019-08-30 10:00:14";"167.60";"233.60";"24.32";"199.90"
"2019-08-30 10:00:12";"167.60";"233.80";"24.38";"200.14"
"2019-08-30 10:00:10";"167.60";"233.80";"24.38";"200.14"
"2019-08-30 10:00:08";"167.60";"233.80";"24.38";"200.14"
"2019-08-30 10:00:06";"167.40";"234.20";"24.43";"200.39"
"2019-08-30 10:00:04";"167.40";"234.20";"24.43";"200.39"
"2019-08-30 10:00:02";"167.20";"234.10";"24.47";"199.65"
"2019-08-30 10:00:00";"167.20";"234.10";"24.47";"199.65"
"2019-08-30 09:59:58";"167.20";"234.10";"24.47";"199.65"
"2019-08-30 09:59:56";"167.00";"235.80";"24.49";"200.80"
"2019-08-30 09:59:54";"167.00";"235.80";"24.49";"200.80"
"2019-08-30 09:59:52";"166.90";"236.60";"24.48";"199.90"
"2019-08-30 09:59:50";"166.90";"236.60";"24.48";"199.90"
"2019-08-30 09:59:48";"166.90";"236.60";"24.48";"199.90"
"2019-08-30 09:59:46";"166.70";"237.20";"24.49";"200.14"
"2019-08-30 09:59:44";"166.70";"237.20";"24.49";"200.14"
"2019-08-30 09:59:42";"166.80";"238.60";"24.45";"199.39"
"2019-08-30 09:59:40";"166.80";"238.60";"24.45";"199.39"
"2019-08-30 09:59:38";"166.80";"238.60";"24.45";"199.39"
"2019-08-30 09:59:36";"166.60";"238.90";"24.48";"200.62"
"2019-08-30 09:59:34";"166.60";"238.90";"24.48";"200.62"
"2019-08-30 09:59:32";"166.60";"239.80";"24.43";"199.65"
"2019-08-30 09:59:30";"166.60";"239.80";"24.43";"199.65"
"2019-08-30 09:59:28";"166.60";"239.80";"24.43";"199.65"
"2019-08-30 09:59:26";"166.40";"237.80";"24.54";"199.90"
"2019-08-30 09:59:24";"166.40";"237.80";"24.54";"199.90"
"2019-08-30 09:59:22";"166.30";"239.60";"24.56";"200.14"
"2019-08-30 09:59:20";"166.30";"239.60";"24.56";"200.14"
"2019-08-30 09:59:18";"166.30";"239.60";"24.56";"200.14"
"2019-08-30 09:59:16";"166.10";"241.20";"24.48";"199.41"
"2019-08-30 09:59:14";"166.10";"241.20";"24.48";"199.41"
"2019-08-30 09:59:12";"165.90";"240.60";"24.54";"200.14"
"2019-08-30 09:59:10";"165.90";"240.60";"24.54";"200.14"
"2019-08-30 09:59:08";"165.90";"240.60";"24.54";"200.14"
"2019-08-30 09:59:06";"165.90";"241.80";"24.56";"199.90"
"2019-08-30 09:59:04";"165.90";"241.80";"24.56";"199.90"
"2019-08-30 09:59:02";"165.80";"242.00";"24.54";"200.39"
"2019-08-30 09:59:00";"165.80";"242.00";"24.54";"200.39"
"2019-08-30 09:58:58";"165.80";"242.00";"24.54";"200.39"
"2019-08-30 09:58:56";"165.60";"242.00";"24.58";"200.22"
"2019-08-30 09:58:54";"165.60";"242.00";"24.58";"200.22"
"2019-08-30 09:58:52";"165.50";"243.50";"24.51";"200.14"
"2019-08-30 09:58:50";"165.50";"243.50";"24.51";"200.14"
"2019-08-30 09:58:48";"165.50";"243.50";"24.51";"200.14"
"2019-08-30 09:58:46";"165.40";"243.60";"24.56";"199.68"
"2019-08-30 09:58:44";"165.40";"243.60";"24.56";"199.68"
"2019-08-30 09:58:42";"165.40";"244.10";"24.58";"199.39"
"2019-08-30 09:58:40";"165.40";"244.10";"24.58";"199.39"
"2019-08-30 09:58:38";"165.40";"244.10";"24.58";"199.39"
"2019-08-30 09:58:36";"165.10";"243.80";"24.61";"199.64"
"2019-08-30 09:58:34";"165.10";"243.80";"24.61";"199.64"
"2019-08-30 09:58:32";"165.00";"243.30";"24.61";"200.14"
"2019-08-30 09:58:30";"165.00";"243.30";"24.61";"200.14"
"2019-08-30 09:58:28";"165.00";"243.30";"24.61";"200.14"
"2019-08-30 09:58:26";"165.00";"245.80";"24.58";"200.39"
"2019-08-30 09:58:24";"165.00";"245.80";"24.58";"200.39"
"2019-08-30 09:58:22";"164.80";"245.70";"24.55";"200.14"
"2019-08-30 09:58:20";"164.80";"245.70";"24.55";"200.14"
"2019-08-30 09:58:18";"164.80";"245.70";"24.55";"200.14"
"2019-08-30 09:58:16";"164.70";"245.50";"24.59";"199.41"
"2019-08-30 09:58:14";"164.70";"245.50";"24.59";"199.41"
"2019-08-30 09:58:12";"164.50";"246.50";"24.59";"199.62"
"2019-08-30 09:58:10";"164.50";"246.50";"24.59";"199.62"
"2019-08-30 09:58:08";"164.50";"246.50";"24.59";"199.62"
"2019-08-30 09:58:06";"164.40";"247.30";"24.43";"200.14"
"2019-08-30 09:58:04";"164.40";"247.30";"24.43";"200.14"
"2019-08-30 09:58:02";"164.30";"248.20";"24.49";"200.14"
"2019-08-30 09:58:00";"164.30";"248.20";"24.49";"200.14"
"2019-08-30 09:57:58";"164.30";"248.20";"24.49";"200.14"
"2019-08-30 09:57:56";"164.10";"248.20";"24.68";"200.80"
"2019-08-30 09:57:54";"164.10";"248.20";"24.68";"200.80"
"2019-08-30 09:57:52";"164.10";"248.60";"24.63";"200.14"
"2019-08-30 09:57:50";"164.10";"248.60";"24.63";"200.14"
"2019-08-30 09:57:48";"164.10";"248.60";"24.63";"200.14"
"2019-08-30 09:57:46";"163.80";"249.50";"24.57";"200.14"
"2019-08-30 09:57:44";"163.80";"249.50";"24.57";"200.14"
"2019-08-30 09:57:42";"163.70";"250.20";"24.67";"199.44"
"2019-08-30 09:57:40";"163.70";"250.20";"24.67";"199.44"
"2019-08-30 09:57:38";"163.70";"250.20";"24.67";"199.44"
"2019-08-30 09:57:36";"163.70";"249.70";"24.71";"199.90"
"2019-08-30 09:57:34";"163.70";"249.70";"24.71";"199.90"
"2019-08-30 09:57:32";"163.60";"250.30";"24.84";"200.64"
"2019-08-30 09:57:30";"163.60";"250.30";"24.84";"200.64"
"2019-08-30 09:57:28";"163.60";"250.30";"24.84";"200.64"
"2019-08-30 09:57:26";"163.40";"252.20";"24.52";"199.90"
"2019-08-30 09:57:24";"163.40";"252.20";"24.52";"199.90"
"2019-08-30 09:57:22";"163.20";"253.10";"24.51";"199.15"
"2019-08-30 09:57:20";"163.20";"253.10";"24.51";"199.15"
"2019-08-30 09:57:18";"163.20";"253.10";"24.51";"199.15"
"2019-08-30 09:57:16";"163.10";"252.70";"24.53";"199.65"
"2019-08-30 09:57:14";"163.10";"252.70";"24.53";"199.65"
"2019-08-30 09:57:12";"163.10";"252.50";"24.60";"200.14"
"2019-08-30 09:57:10";"163.10";"252.50";"24.60";"200.14"
"2019-08-30 09:57:08";"163.10";"252.50";"24.60";"200.14"
"2019-08-30 09:57:06";"162.90";"252.20";"24.77";"200.39"
"2019-08-30 09:57:04";"162.90";"252.20";"24.77";"200.39"
"2019-08-30 09:57:02";"162.80";"253.90";"24.59";"200.14"
"2019-08-30 09:57:00";"162.80";"253.90";"24.59";"200.14"
"2019-08-30 09:56:58";"162.80";"253.90";"24.59";"200.14"
"2019-08-30 09:56:56";"162.70";"254.30";"24.64";"199.90"
"2019-08-30 09:56:54";"162.70";"254.30";"24.64";"199.90"
"2019-08-30 09:56:52";"162.50";"254.00";"24.46";"199.39"
"2019-08-30 09:56:50";"162.50";"254.00";"24.46";"199.39"
"2019-08-30 09:56:48";"162.50";"254.00";"24.46";"199.39"
"2019-08-30 09:56:46";"162.30";"254.70";"24.61";"200.14"
"2019-08-30 09:56:44";"162.30";"254.70";"24.61";"200.14"
"2019-08-30 09:56:42";"162.30";"254.70";"24.54";"199.90"
"2019-08-30 09:56:40";"162.30";"254.70";"24.54";"199.90"
"2019-08-30 09:56:38";"162.30";"254.70";"24.54";"199.90"
"2019-08-30 09:56:36";"162.30";"254.50";"24.58";"199.90"
"2019-08-30 09:56:34";"162.30";"254.50";"24.58";"199.90"
"2019-08-30 09:56:32";"162.20";"254.20";"24.69";"200.81"
"2019-08-30 09:56:30";"162.20";"254.20";"24.69";"200.81"
"2019-08-30 09:56:28";"162.20";"254.20";"24.69";"200.81"
"2019-08-30 09:56:26";"162.10";"255.00";"24.49";"199.65"
"2019-08-30 09:56:24";"162.10";"255.00";"24.49";"199.65"
"2019-08-30 09:56:22";"162.00";"255.00";"24.66";"199.67"
"2019-08-30 09:56:20";"162.00";"255.00";"24.66";"199.67"
"2019-08-30 09:56:18";"162.00";"255.00";"24.66";"199.67"
"2019-08-30 09:56:16";"161.90";"255.70";"24.95";"200.81"
"2019-08-30 09:56:14";"161.90";"255.70";"24.95";"200.81"
"2019-08-30 09:56:12";"161.60";"257.20";"24.61";"200.80"
"2019-08-30 09:56:10";"161.60";"257.20";"24.61";"200.80"
"2019-08-30 09:56:08";"161.60";"257.20";"24.61";"200.80"
"2019-08-30 09:56:06";"161.80";"256.20";"25.03";"200.55"
"2019-08-30 09:56:04";"161.80";"256.20";"25.03";"200.55"
"2019-08-30 09:56:02";"161.70";"257.20";"24.87";"200.80"
"2019-08-30 09:56:00";"161.70";"257.20";"24.87";"200.80"
"2019-08-30 09:55:58";"161.70";"257.20";"24.87";"200.80"
"2019-08-30 09:55:56";"161.60";"256.90";"24.65";"198.19"
"2019-08-30 09:55:54";"161.60";"256.90";"24.65";"198.19"
"2019-08-30 09:55:52";"161.40";"257.90";"24.71";"200.80"
"2019-08-30 09:55:50";"161.40";"257.90";"24.71";"200.80"
"2019-08-30 09:55:48";"161.40";"257.90";"24.71";"200.80"
"2019-08-30 09:55:46";"161.40";"257.00";"25.01";"202.26"
"2019-08-30 09:55:44";"161.40";"257.00";"25.01";"202.26"
"2019-08-30 09:55:42";"161.30";"258.80";"24.63";"199.88"
"2019-08-30 09:55:40";"161.30";"258.80";"24.63";"199.88"
"2019-08-30 09:55:38";"161.30";"258.80";"24.63";"199.88"
"2019-08-30 09:55:36";"161.20";"258.30";"24.61";"199.39"
"2019-08-30 09:55:34";"161.20";"258.30";"24.61";"199.39"
"2019-08-30 09:55:32";"161.10";"259.40";"24.67";"200.39"
"2019-08-30 09:55:30";"161.10";"259.40";"24.67";"200.39"
"2019-08-30 09:55:28";"161.10";"259.40";"24.67";"200.39"
"2019-08-30 09:55:26";"161.10";"258.80";"24.66";"200.14"
"2019-08-30 09:55:24";"161.10";"258.80";"24.66";"200.14"
"2019-08-30 09:55:22";"161.00";"258.80";"25.01";"200.64"
"2019-08-30 09:55:20";"161.00";"258.80";"25.01";"200.64"
"2019-08-30 09:55:18";"161.00";"258.80";"25.01";"200.64"
"2019-08-30 09:55:16";"160.90";"258.70";"25.04";"199.90"
"2019-08-30 09:55:14";"160.90";"258.70";"25.04";"199.90"
"2019-08-30 09:55:12";"160.80";"258.80";"24.83";"200.39"
"2019-08-30 09:55:10";"160.80";"258.80";"24.83";"200.39"
"2019-08-30 09:55:08";"160.80";"258.80";"24.83";"200.39"
"2019-08-30 09:55:06";"160.70";"260.70";"24.69";"200.80"
"2019-08-30 09:55:04";"160.70";"260.70";"24.69";"200.80"
"2019-08-30 09:55:02";"160.70";"260.40";"24.93";"196.06"
"2019-08-30 09:55:00";"160.70";"260.40";"24.93";"196.06"
"2019-08-30 09:54:58";"160.70";"260.40";"24.93";"196.06"
"2019-08-30 09:54:56";"160.60";"261.20";"24.70";"200.62"
"2019-08-30 09:54:54";"160.60";"261.20";"24.70";"200.62"
"2019-08-30 09:54:52";"160.60";"261.50";"24.58";"200.14"
"2019-08-30 09:54:50";"160.60";"261.50";"24.58";"200.14"
"2019-08-30 09:54:48";"160.60";"261.50";"24.58";"200.14"
"2019-08-30 09:54:46";"160.50";"261.40";"24.82";"199.39"
"2019-08-30 09:54:44";"160.50";"261.40";"24.82";"199.39"
"2019-08-30 09:54:42";"160.70";"262.10";"24.66";"199.90"
"2019-08-30 09:54:40";"160.70";"262.10";"24.66";"199.90"
"2019-08-30 09:54:38";"160.70";"262.10";"24.66";"199.90"
"2019-08-30 09:54:36";"160.40";"262.00";"24.63";"200.80"
"2019-08-30 09:54:34";"160.40";"262.00";"24.63";"200.80"
"2019-08-30 09:54:32";"160.50";"262.00";"24.54";"200.39"
"2019-08-30 09:54:30";"160.50";"262.00";"24.54";"200.39"
"2019-08-30 09:54:28";"160.50";"262.00";"24.54";"200.39"
"2019-08-30 09:54:26";"160.30";"261.40";"24.93";"200.55"
"2019-08-30 09:54:24";"160.30";"261.40";"24.93";"200.55"
"2019-08-30 09:54:22";"160.40";"261.60";"25.10";"200.39"
"2019-08-30 09:54:20";"160.40";"261.60";"25.10";"200.39"
"2019-08-30 09:54:18";"160.40";"261.60";"25.10";"200.39"
"2019-08-30 09:54:16";"160.30";"262.50";"24.70";"200.39"
"2019-08-30 09:54:14";"160.30";"262.50";"24.70";"200.39"
"2019-08-30 09:54:12";"160.40";"262.60";"24.86";"200.64"
"2019-08-30 09:54:10";"160.40";"262.60";"24.86";"200.64"
"2019-08-30 09:54:08";"160.40";"262.60";"24.86";"200.64"
"2019-08-30 09:54:06";"160.30";"262.50";"25.04";"201.79"
"2019-08-30 09:54:04";"160.30";"262.50";"25.04";"201.79"
"2019-08-30 09:54:02";"160.40";"262.20";"25.07";"203.44"
"2019-08-30 09:54:00";"160.40";"262.20";"25.07";"203.44"
"2019-08-30 09:53:58";"160.40";"262.20";"25.07";"203.44"
"2019-08-30 09:53:56";"160.20";"263.90";"24.94";"188.74"
"2019-08-30 09:53:54";"160.20";"263.90";"24.94";"188.74"
"2019-08-30 09:53:52";"160.40";"265.20";"24.66";"199.65"
"2019-08-30 09:53:50";"160.40";"265.20";"24.66";"199.65"
"2019-08-30 09:53:48";"160.40";"265.20";"24.66";"199.65"
"2019-08-30 09:53:46";"160.40";"264.90";"24.76";"200.39"
"2019-08-30 09:53:44";"160.40";"264.90";"24.76";"200.39"
"2019-08-30 09:53:42";"160.40";"264.70";"24.63";"200.80"
"2019-08-30 09:53:40";"160.40";"264.70";"24.63";"200.80"
"2019-08-30 09:53:38";"160.40";"264.70";"24.63";"200.80"
"2019-08-30 09:53:36";"160.20";"265.90";"24.68";"200.39"
"2019-08-30 09:53:34";"160.20";"265.90";"24.68";"200.39"
"2019-08-30 09:53:32";"160.20";"265.50";"24.83";"200.13"
"2019-08-30 09:53:30";"160.20";"265.50";"24.83";"200.13"
"2019-08-30 09:53:28";"160.20";"265.50";"24.83";"200.13"
"2019-08-30 09:53:26";"160.00";"265.60";"24.80";"200.80"
"2019-08-30 09:53:24";"160.00";"265.60";"24.80";"200.80"
"2019-08-30 09:53:22";"159.90";"267.30";"24.81";"197.57"
"2019-08-30 09:53:20";"159.90";"267.30";"24.81";"197.57"
"2019-08-30 09:53:18";"159.90";"267.30";"24.81";"197.57"
"2019-08-30 09:53:16";"159.70";"265.20";"24.90";"200.39"
"2019-08-30 09:53:14";"159.70";"265.20";"24.90";"200.39"
"2019-08-30 09:53:12";"159.50";"265.50";"24.78";"199.64"
"2019-08-30 09:53:10";"159.50";"265.50";"24.78";"199.64"
"2019-08-30 09:53:08";"159.50";"265.50";"24.78";"199.64"
"2019-08-30 09:53:06";"159.40";"265.60";"25.10";"200.80"
"2019-08-30 09:53:04";"159.40";"265.60";"25.10";"200.80"
"2019-08-30 09:53:02";"159.10";"266.70";"25.10";"199.39"
"2019-08-30 09:53:00";"159.10";"266.70";"25.01";"199.39"
"2019-08-30 09:52:58";"159.10";"266.70";"25.01";"199.39"
"2019-08-30 09:52:56";"159.00";"265.90";"25.08";"201.53"
"2019-08-30 09:52:54";"159.00";"265.90";"25.08";"201.53"
"2019-08-30 09:52:52";"158.70";"267.50";"25.08";"203.20"
"2019-08-30 09:52:50";"158.70";"267.50";"25.06";"203.20"
"2019-08-30 09:52:48";"158.70";"267.50";"25.06";"203.20"
"2019-08-30 09:52:46";"158.60";"266.30";"24.97";"200.80"
"2019-08-30 09:52:44";"158.60";"266.30";"24.97";"200.80"
"2019-08-30 09:52:42";"158.60";"267.20";"24.97";"201.04"
"2019-08-30 09:52:40";"158.60";"267.20";"25.04";"201.04"
"2019-08-30 09:52:38";"158.60";"267.20";"25.04";"201.04"
"2019-08-30 09:52:36";"158.40";"267.80";"25.16";"198.23"
"2019-08-30 09:52:34";"158.40";"267.80";"25.16";"198.23"
"2019-08-30 09:52:32";"158.20";"266.90";"25.16";"202.04"
"2019-08-30 09:52:30";"158.20";"266.90";"25.18";"202.04"
"2019-08-30 09:52:28";"158.20";"266.90";"25.18";"202.04"
"2019-08-30 09:52:26";"158.00";"267.60";"25.16";"201.42"
"2019-08-30 09:52:24";"158.00";"267.60";"25.16";"201.42"
"2019-08-30 09:52:22";"158.00";"267.70";"25.16";"201.04"
"2019-08-30 09:52:20";"158.00";"267.70";"25.09";"201.04"
"2019-08-30 09:52:18";"158.00";"267.70";"25.09";"201.04"
"2019-08-30 09:52:16";"158.00";"266.50";"25.12";"202.01"
"2019-08-30 09:52:14";"158.00";"266.50";"25.12";"202.01"
"2019-08-30 09:52:12";"157.60";"266.90";"25.12";"193.58"
"2019-08-30 09:52:10";"157.60";"266.90";"25.10";"193.58"
"2019-08-30 09:52:08";"157.60";"266.90";"25.10";"193.58"
"2019-08-30 09:52:06";"157.50";"266.80";"25.30";"203.94"
"2019-08-30 09:52:04";"157.50";"266.80";"25.30";"203.94"
"2019-08-30 09:52:02";"157.40";"265.90";"25.30";"195.11"
"2019-08-30 09:52:00";"157.40";"265.90";"25.24";"195.11"
"2019-08-30 09:51:58";"157.40";"265.90";"25.24";"195.11"
"2019-08-30 09:51:56";"157.20";"266.70";"25.21";"200.80"
"2019-08-30 09:51:54";"157.20";"266.70";"25.21";"200.80"
"2019-08-30 09:51:52";"156.90";"266.10";"25.21";"201.29"
"2019-08-30 09:51:50";"156.90";"266.10";"25.20";"201.29"
"2019-08-30 09:51:48";"156.90";"266.10";"25.20";"201.29"
"2019-08-30 09:51:46";"157.00";"266.40";"25.26";"194.20"
"2019-08-30 09:51:44";"157.00";"266.40";"25.26";"194.20"
"2019-08-30 09:51:42";"156.50";"271.40";"25.26";"190.58"
"2019-08-30 09:51:40";"156.50";"271.40";"25.11";"190.58"
"2019-08-30 09:51:38";"156.50";"271.40";"25.11";"190.58"
"2019-08-30 09:51:36";"156.70";"268.60";"25.20";"202.69"
"2019-08-30 09:51:34";"156.70";"268.60";"25.20";"202.69"
"2019-08-30 09:51:32";"156.40";"270.20";"25.20";"196.76"
"2019-08-30 09:51:30";"156.40";"270.20";"25.09";"196.76"
"2019-08-30 09:51:28";"156.40";"270.20";"25.09";"196.76"
"2019-08-30 09:51:26";"156.20";"271.20";"25.06";"200.80"
"2019-08-30 09:51:24";"156.20";"271.20";"25.06";"200.80"
"2019-08-30 09:51:22";"156.00";"272.50";"25.06";"200.80"
"2019-08-30 09:51:20";"156.00";"272.50";"25.12";"200.80"
"2019-08-30 09:51:18";"156.00";"272.50";"25.12";"200.80"
"2019-08-30 09:51:16";"155.70";"271.20";"25.09";"200.55"
"2019-08-30 09:51:14";"155.70";"271.20";"25.09";"200.55"
"2019-08-30 09:51:12";"155.50";"271.00";"25.09";"200.55"
"2019-08-30 09:51:10";"155.50";"271.00";"25.22";"201.04"
"2019-08-30 09:51:08";"155.50";"271.00";"25.22";"201.04"
"2019-08-30 09:51:06";"155.40";"270.70";"25.22";"201.52"
"2019-08-30 09:51:04";"155.40";"270.70";"25.22";"201.52"
"2019-08-30 09:51:02";"155.10";"269.50";"25.22";"201.52"
"2019-08-30 09:51:00";"155.10";"269.50";"25.12";"204.60"
"2019-08-30 09:50:58";"155.10";"269.50";"25.12";"204.60"
"2019-08-30 09:50:56";"154.90";"271.50";"25.32";"199.73"
"2019-08-30 09:50:54";"154.90";"271.50";"25.32";"199.73"
"2019-08-30 09:50:52";"154.90";"271.40";"25.32";"199.73"
"2019-08-30 09:50:50";"154.70";"271.40";"25.13";"202.03"
"2019-08-30 09:50:48";"154.70";"271.40";"25.13";"202.03"
"2019-08-30 09:50:46";"154.30";"271.40";"25.22";"201.04"
"2019-08-30 09:50:44";"154.30";"271.40";"25.22";"201.04"
"2019-08-30 09:50:42";"154.30";"272.20";"25.22";"201.04"
"2019-08-30 09:50:40";"154.10";"272.20";"25.09";"200.27"
"2019-08-30 09:50:38";"154.10";"272.20";"25.09";"200.27"
"2019-08-30 09:50:36";"153.80";"273.70";"25.25";"200.80"
"2019-08-30 09:50:34";"153.80";"273.70";"25.25";"200.80"
"2019-08-30 09:50:32";"153.80";"270.70";"25.25";"200.80"
"2019-08-30 09:50:30";"153.60";"270.70";"25.47";"202.03"
"2019-08-30 09:50:28";"153.60";"270.70";"25.47";"202.03"
"2019-08-30 09:50:26";"153.30";"274.20";"25.16";"201.98"
"2019-08-30 09:50:24";"153.30";"274.20";"25.16";"201.98"
"2019-08-30 09:50:22";"153.30";"274.40";"25.16";"201.98"
"2019-08-30 09:50:20";"153.20";"274.40";"25.15";"201.79"
"2019-08-30 09:50:18";"153.20";"274.40";"25.15";"201.79"
"2019-08-30 09:50:16";"152.80";"275.10";"25.17";"201.29"
"2019-08-30 09:50:14";"152.80";"275.10";"25.17";"201.29"
"2019-08-30 09:50:12";"152.80";"275.10";"25.17";"201.29"
"2019-08-30 09:50:10";"152.40";"273.00";"25.26";"201.04"
"2019-08-30 09:50:08";"152.40";"273.00";"25.26";"201.04"
"2019-08-30 09:50:06";"152.20";"276.70";"25.13";"197.01"
"2019-08-30 09:50:04";"152.20";"276.70";"25.13";"197.01"
"2019-08-30 09:50:02";"152.20";"276.70";"25.13";"197.01"
"2019-08-30 09:50:00";"151.80";"274.40";"25.28";"202.03"
"2019-08-30 09:49:58";"151.80";"274.40";"25.28";"202.03"
"2019-08-30 09:49:56";"151.50";"273.80";"25.40";"198.84"
"2019-08-30 09:49:54";"151.50";"273.80";"25.40";"198.84"
"2019-08-30 09:49:52";"151.50";"273.80";"25.40";"198.84"
"2019-08-30 09:49:50";"151.20";"272.80";"25.59";"201.29"
"2019-08-30 09:49:48";"151.20";"272.80";"25.59";"201.29"
"2019-08-30 09:49:46";"150.90";"275.60";"25.37";"203.67"
"2019-08-30 09:49:44";"150.90";"275.60";"25.37";"203.67"
"2019-08-30 09:49:42";"150.90";"275.60";"25.37";"203.67"
"2019-08-30 09:49:40";"150.50";"274.30";"25.49";"201.36"
"2019-08-30 09:49:38";"150.50";"274.30";"25.49";"201.36"
"2019-08-30 09:49:36";"150.10";"276.00";"25.44";"205.83"
"2019-08-30 09:49:34";"150.10";"276.00";"25.44";"205.83"
"2019-08-30 09:49:32";"150.10";"276.00";"25.44";"205.83"
"2019-08-30 09:49:30";"149.80";"277.90";"25.21";"190.73"
"2019-08-30 09:49:28";"149.80";"277.90";"25.21";"190.73"
"2019-08-30 09:49:26";"149.20";"278.00";"25.18";"199.88"
"2019-08-30 09:49:24";"149.20";"278.00";"25.18";"199.88"
"2019-08-30 09:49:22";"149.20";"278.00";"25.18";"199.88"
"2019-08-30 09:49:20";"148.80";"277.20";"25.44";"201.78"
"2019-08-30 09:49:18";"148.80";"277.20";"25.44";"201.78"
"2019-08-30 09:49:16";"148.50";"281.30";"25.26";"203.18"
"2019-08-30 09:49:14";"148.50";"281.30";"25.26";"203.18"
"2019-08-30 09:49:12";"148.50";"281.30";"25.26";"203.18"
"2019-08-30 09:49:10";"148.20";"281.90";"25.46";"201.03"
"2019-08-30 09:49:08";"148.20";"281.90";"25.46";"201.03"
"2019-08-30 09:49:06";"147.70";"280.80";"25.27";"200.54"
"2019-08-30 09:49:04";"147.70";"280.80";"25.27";"200.54"
"2019-08-30 09:49:02";"147.70";"280.80";"25.27";"200.54"
"2019-08-30 09:49:00";"147.20";"278.00";"25.16";"201.27"
"2019-08-30 09:48:58";"147.20";"278.00";"25.16";"201.27"
"2019-08-30 09:48:56";"146.50";"282.80";"25.35";"200.78"
"2019-08-30 09:48:54";"146.50";"282.80";"25.35";"200.78"
"2019-08-30 09:48:52";"146.50";"282.80";"25.35";"200.78"
"2019-08-30 09:48:50";"146.00";"281.80";"25.37";"201.78"
"2019-08-30 09:48:48";"146.00";"281.80";"25.37";"201.78"
"2019-08-30 09:48:46";"145.50";"280.30";"25.72";"204.59"
"2019-08-30 09:48:44";"145.50";"280.30";"25.72";"204.59"
"2019-08-30 09:48:42";"145.50";"280.30";"25.72";"204.59"
"2019-08-30 09:48:40";"145.00";"279.70";"25.69";"203.98"
"2019-08-30 09:48:38";"145.00";"279.70";"25.69";"203.98"
"2019-08-30 09:48:36";"144.40";"280.00";"25.59";"195.67"
"2019-08-30 09:48:34";"144.40";"280.00";"25.59";"195.67"
"2019-08-30 09:48:32";"144.40";"280.00";"25.59";"195.67"
"2019-08-30 09:48:30";"143.70";"280.60";"25.43";"200.38"
"2019-08-30 09:48:28";"143.70";"280.60";"25.43";"200.38"
"2019-08-30 09:48:26";"143.10";"282.60";"25.32";"191.77"
"2019-08-30 09:48:24";"143.10";"282.60";"25.32";"191.77"
"2019-08-30 09:48:22";"143.10";"282.60";"25.32";"191.77"
"2019-08-30 09:48:20";"142.40";"284.70";"25.60";"203.18"
"2019-08-30 09:48:18";"142.40";"284.70";"25.60";"203.18"
"2019-08-30 09:48:16";"141.80";"283.90";"25.68";"198.58"
"2019-08-30 09:48:14";"141.80";"283.90";"25.68";"198.58"
"2019-08-30 09:48:12";"141.80";"283.90";"25.68";"198.58"
"2019-08-30 09:48:10";"141.30";"284.50";"25.47";"189.44"
"2019-08-30 09:48:08";"141.30";"284.50";"25.47";"189.44"
"2019-08-30 09:48:06";"140.30";"285.40";"25.36";"201.03"
"2019-08-30 09:48:04";"140.30";"285.40";"25.36";"201.03"
"2019-08-30 09:48:02";"140.30";"285.40";"25.36";"201.03"
"2019-08-30 09:48:00";"139.60";"287.10";"25.48";"201.77"
"2019-08-30 09:47:58";"139.60";"287.10";"25.48";"201.77"
"2019-08-30 09:47:56";"139.00";"283.30";"25.52";"204.17"
"2019-08-30 09:47:54";"139.00";"283.30";"25.52";"204.17"
"2019-08-30 09:47:52";"139.00";"283.30";"25.52";"204.17"
"2019-08-30 09:47:50";"137.90";"288.10";"25.49";"200.36"
"2019-08-30 09:47:48";"137.90";"288.10";"25.49";"200.36"
"2019-08-30 09:47:46";"137.20";"288.80";"25.51";"201.52"
"2019-08-30 09:47:44";"137.20";"288.80";"25.51";"201.52"
"2019-08-30 09:47:42";"137.20";"288.80";"25.51";"201.52"
"2019-08-30 09:47:40";"136.30";"285.20";"25.62";"203.18"
"2019-08-30 09:47:38";"136.30";"285.20";"25.62";"203.18"
"2019-08-30 09:47:36";"135.60";"285.40";"25.66";"206.08"
"2019-08-30 09:47:34";"135.60";"285.40";"25.66";"206.08"
"2019-08-30 09:47:32";"135.60";"285.40";"25.66";"206.08"
"2019-08-30 09:47:30";"134.60";"285.80";"25.64";"201.52"
"2019-08-30 09:47:28";"134.60";"285.80";"25.64";"201.52"
"2019-08-30 09:47:26";"133.80";"281.30";"25.48";"192.01"
"2019-08-30 09:47:24";"133.80";"281.30";"25.48";"192.01"
"2019-08-30 09:47:22";"133.80";"281.30";"25.48";"192.01"
"2019-08-30 09:47:20";"132.60";"288.90";"25.27";"195.10"
"2019-08-30 09:47:18";"132.60";"288.90";"25.27";"195.10"
"2019-08-30 09:47:16";"131.40";"289.30";"25.35";"198.51"
"2019-08-30 09:47:14";"131.40";"289.30";"25.35";"198.51"
"2019-08-30 09:47:12";"131.40";"289.30";"25.35";"198.51"
"2019-08-30 09:47:10";"130.30";"291.70";"25.33";"201.27"
"2019-08-30 09:47:08";"130.30";"291.70";"25.33";"201.27"
"2019-08-30 09:47:06";"128.80";"287.90";"25.39";"201.27"
"2019-08-30 09:47:04";"128.80";"287.90";"25.39";"201.27"
"2019-08-30 09:47:02";"128.80";"287.90";"25.39";"201.27"
"2019-08-30 09:47:00";"127.40";"286.40";"25.48";"202.01"
"2019-08-30 09:46:58";"127.40";"286.40";"25.48";"202.01"
"2019-08-30 09:46:56";"125.70";"288.10";"25.64";"202.69"
"2019-08-30 09:46:54";"125.70";"288.10";"25.64";"202.69"
"2019-08-30 09:46:52";"125.70";"288.10";"25.64";"202.69"
"2019-08-30 09:46:50";"124.00";"290.40";"25.07";"189.19"
"2019-08-30 09:46:48";"124.00";"290.40";"25.07";"189.19"
"2019-08-30 09:46:46";"121.90";"291.50";"25.53";"201.27"
"2019-08-30 09:46:44";"121.90";"291.50";"25.53";"201.27"
"2019-08-30 09:46:42";"121.90";"291.50";"25.53";"201.27"
"2019-08-30 09:46:40";"119.60";"289.90";"25.37";"202.27"
"2019-08-30 09:46:38";"119.60";"289.90";"25.37";"202.27"
"2019-08-30 09:46:36";"117.10";"291.60";"25.40";"202.01"
"2019-08-30 09:46:34";"117.10";"291.60";"25.40";"202.01"
"2019-08-30 09:46:32";"117.10";"291.60";"25.40";"202.01"
"2019-08-30 09:46:30";"114.40";"294.30";"25.39";"201.49"
"2019-08-30 09:46:28";"114.40";"294.30";"25.39";"201.49"
"2019-08-30 09:46:26";"111.70";"289.50";"25.31";"197.74"
"2019-08-30 09:46:24";"111.70";"289.50";"25.31";"197.74"
"2019-08-30 09:46:22";"111.70";"289.50";"25.31";"197.74"
"2019-08-30 09:46:20";"108.80";"291.60";"25.34";"201.87"
"2019-08-30 09:46:18";"108.80";"291.60";"25.34";"201.87"
"2019-08-30 09:46:16";"105.60";"289.90";"25.46";"200.36"
"2019-08-30 09:46:14";"105.60";"289.90";"25.46";"200.36"
"2019-08-30 09:46:12";"105.60";"289.90";"25.46";"200.36"
"2019-08-30 09:46:10";"102.40";"281.60";"25.54";"201.52"
"2019-08-30 09:46:08";"102.40";"281.60";"25.54";"201.52"
"2019-08-30 09:46:06";"98.00";"290.00";"25.47";"197.50"
"2019-08-30 09:46:04";"98.00";"290.00";"25.47";"197.50"
"2019-08-30 09:46:02";"98.00";"290.00";"25.47";"197.50"
"2019-08-30 09:46:00";"93.20";"289.80";"25.18";"203.92"
"2019-08-30 09:45:58";"93.20";"289.80";"25.18";"203.92"
"2019-08-30 09:45:56";"88.10";"289.90";"24.49";"195.95"
"2019-08-30 09:45:54";"88.10";"289.90";"24.49";"195.95"
"2019-08-30 09:45:52";"88.10";"289.90";"24.49";"195.95"
"2019-08-30 09:45:50";"82.80";"281.10";"23.11";"201.03"
"2019-08-30 09:45:48";"82.80";"281.10";"23.11";"201.03"
"2019-08-30 09:45:46";"76.30";"288.90";"21.60";"199.62"
"2019-08-30 09:45:44";"76.30";"288.90";"21.60";"199.62"
"2019-08-30 09:45:42";"76.30";"288.90";"21.60";"199.62"
"2019-08-30 09:45:40";"71.30";"294.00";"18.17";"194.82"
"2019-08-30 09:45:38";"71.30";"294.00";"18.17";"194.82"
"2019-08-30 09:45:36";"67.00";"269.70";"12.84";"197.22"
"2019-08-30 09:45:34";"67.00";"269.70";"12.84";"197.22"
"2019-08-30 09:45:32";"67.00";"269.70";"12.84";"197.22"
"2019-08-30 09:45:30";"65.30";"214.30";"6.37";"196.06"
"2019-08-30 09:45:28";"65.30";"214.30";"6.37";"196.06"
"2019-08-30 09:45:26";"77.20";"295.50";"2.21";"198.87"
"2019-08-30 09:45:24";"77.20";"295.50";"2.21";"198.87"
"2019-08-30 09:45:22";"77.20";"295.50";"2.21";"198.87"
"2019-08-30 09:45:20";"92.50";"262.60";"1.57";"196.59"
"2019-08-30 09:45:18";"92.50";"262.60";"1.57";"196.59"
"2019-08-30 09:45:16";"97.60";"244.20";"1.57";"195.56"
"2019-08-30 09:45:14";"97.60";"244.20";"0.78";"195.56"
"2019-08-30 09:45:12";"97.60";"244.20";"0.78";"195.56"
"2019-08-30 09:45:10";"196.80";"266.50";"-0.40";"196.72"
"2019-08-30 09:45:08";"196.80";"266.50";"-0.40";"196.72"
"2019-08-30 09:45:06";"240.40";"236.30";"-0.40";"196.06"
"2019-08-30 09:45:04";"240.40";"236.30";"-0.45";"196.06"
"2019-08-30 09:45:02";"240.40";"236.30";"-0.45";"196.06"
"2019-08-30 09:45:00";"241.50";"233.60";"-0.46";"193.14"
"2019-08-30 09:44:58";"241.50";"233.60";"-0.46";"193.14"
"2019-08-30 09:44:56";"242.90";"229.90";"-0.46";"188.14"
"2019-08-30 09:44:54";"242.90";"229.90";"-0.46";"188.14"
"2019-08-30 09:44:52";"242.90";"229.90";"-0.46";"188.14"
"2019-08-30 09:44:50";"244.40";"225.70";"-0.46";"178.40"
"2019-08-30 09:44:48";"244.40";"225.70";"-0.46";"178.40"
"2019-08-30 09:44:46";"247.00";"215.00";"-0.46";"163.72"
"2019-08-30 09:44:44";"247.00";"215.00";"-0.47";"163.72"
"2019-08-30 09:44:42";"247.00";"215.00";"-0.47";"163.72"
"2019-08-30 09:44:40";"249.80";"201.70";"-0.47";"141.35"
"2019-08-30 09:44:38";"249.80";"201.70";"-0.47";"141.35"
"2019-08-30 09:44:36";"252.60";"188.20";"-0.47";"65.49"
"2019-08-30 09:44:34";"252.60";"188.20";"-0.48";"65.49"
"2019-08-30 09:44:32";"252.60";"188.20";"-0.48";"65.49"
"2019-08-30 09:44:30";"253.60";"183.70";"-0.47";"-0.07"
"2019-08-30 09:44:28";"253.60";"183.70";"-0.47";"-0.07"
"2019-08-30 09:44:26";"253.60";"183.70";"-0.47";"-0.07"
"2019-08-30 09:44:24";"253.60";"183.70";"-0.47";"-0.07"
"2019-08-30 09:44:22";"253.60";"183.70";"-0.47";"-0.07"
"2019-08-30 09:44:20";"253.60";"183.70";"-0.46";"-0.07"
"2019-08-30 09:44:18";"253.60";"183.70";"-0.46";"-0.07"
"2019-08-30 09:44:16";"253.60";"183.80";"-0.46";"-0.07"
"2019-08-30 09:44:14";"253.60";"183.80";"-0.46";"-0.07"
"2019-08-30 09:44:12";"253.60";"183.80";"-0.46";"-0.07"
"2019-08-30 09:44:10";"253.60";"183.80";"-0.47";"-0.07"
"2019-08-30 09:44:08";"253.60";"183.80";"-0.47";"-0.07"
"2019-08-30 09:44:06";"253.60";"183.90";"-0.47";"-0.07"
"2019-08-30 09:44:04";"253.60";"183.90";"-0.47";"-0.07"
"2019-08-30 09:44:02";"253.60";"183.90";"-0.47";"-0.07"
"2019-08-30 09:44:00";"-";"-";"-";"-"